[gd_scene load_steps=8 format=2]

[ext_resource path="res://graphics/window_icon.png" type="Texture" id=1]
[ext_resource path="res://addons/Rakugo/fonts/NotoSans/NotoSans-BoldItalic.ttf" type="DynamicFontData" id=2]
[ext_resource path="res://addons/Rakugo/fonts/NotoSans/NotoSans-Bold.ttf" type="DynamicFontData" id=3]
[ext_resource path="res://addons/Rakugo/tools/about/AboutDialog.gd" type="Script" id=5]

[sub_resource type="DynamicFont" id=1]
size = 40
use_filter = true
font_data = ExtResource( 3 )

[sub_resource type="DynamicFont" id=2]
size = 26
use_mipmaps = true
use_filter = true
font_data = ExtResource( 3 )

[sub_resource type="DynamicFont" id=3]
size = 22
use_mipmaps = true
use_filter = true
font_data = ExtResource( 2 )

[node name="AboutDialog" type="AcceptDialog"]
visible = true
margin_right = 529.0
margin_bottom = 405.0
rect_min_size = Vector2( 530, 405 )
window_title = "About Rakugo"
script = ExtResource( 5 )
__meta__ = {
"_edit_use_anchors_": false
}

[node name="VBoxContainer" type="VBoxContainer" parent="."]
anchor_right = 1.0
anchor_bottom = 1.0
margin_left = 8.0
margin_top = 8.0
margin_right = -8.0
margin_bottom = -36.0
__meta__ = {
"_edit_use_anchors_": false
}

[node name="HBoxContainer" type="HBoxContainer" parent="VBoxContainer"]
margin_right = 515.0
margin_bottom = 130.0
size_flags_horizontal = 3

[node name="TextureRect" type="TextureRect" parent="VBoxContainer/HBoxContainer"]
margin_right = 128.0
margin_bottom = 130.0
texture = ExtResource( 1 )

[node name="Box" type="VBoxContainer" parent="VBoxContainer/HBoxContainer"]
margin_left = 132.0
margin_right = 515.0
margin_bottom = 130.0
size_flags_horizontal = 3

[node name="RakugoLabel" type="Label" parent="VBoxContainer/HBoxContainer/Box"]
margin_right = 383.0
margin_bottom = 55.0
custom_fonts/font = SubResource( 1 )
text = "Rakugo"

[node name="HBoxContainer" type="HBoxContainer" parent="VBoxContainer/HBoxContainer/Box"]
margin_top = 59.0
margin_right = 383.0
margin_bottom = 95.0

[node name="VersionLabel" type="Label" parent="VBoxContainer/HBoxContainer/Box/HBoxContainer"]
margin_right = 326.0
margin_bottom = 36.0
size_flags_horizontal = 3
size_flags_vertical = 3
custom_fonts/font = SubResource( 2 )
custom_colors/font_color = Color( 0.184314, 0.235294, 1, 1 )
text = "Version 3.2.0"

[node name="WebSiteButton" type="LinkButton" parent="VBoxContainer/HBoxContainer/Box/HBoxContainer"]
margin_left = 330.0
margin_right = 383.0
margin_bottom = 36.0
action_mode = 0
text = "Website"

[node name="HBoxContainer2" type="HBoxContainer" parent="VBoxContainer/HBoxContainer/Box"]
margin_top = 99.0
margin_right = 383.0
margin_bottom = 130.0

[node name="CodeNameLabel" type="Label" parent="VBoxContainer/HBoxContainer/Box/HBoxContainer2"]
margin_right = 310.0
margin_bottom = 31.0
size_flags_horizontal = 3
size_flags_vertical = 3
custom_fonts/font = SubResource( 3 )
custom_colors/font_color = Color( 0.423529, 0.239216, 0.698039, 1 )

[node name="BugButton" type="LinkButton" parent="VBoxContainer/HBoxContainer/Box/HBoxContainer2"]
margin_left = 314.0
margin_right = 383.0
margin_bottom = 31.0
text = "Report bug"

[node name="RichTextLabel" type="RichTextLabel" parent="VBoxContainer"]
margin_top = 134.0
margin_right = 515.0
margin_bottom = 364.0
rect_min_size = Vector2( 515, 230 )
focus_mode = 2
size_flags_horizontal = 3
size_flags_vertical = 3
bbcode_enabled = true
bbcode_text = "
Rakugo is made by:
	[url=https://github.com/Jeremi360]Jeremi Biernacki ([i]Jeremi360[/i])[/url],
	[url=https://github.com/Vaasref]Vaasref[/url]
	[url=https://github.com/BurningWood]Zon Petilla ([i]Title Pending[/i])[/url],
	[url=https://github.com/ivandardi]Ivan Borgia Dardi([i]ivandardi/MelodicStream[/i])[/url],
	[url=https://github.com/deep-gaurav]Deep Gaurav[/url]

Special Thanks for:
	Nefaras,
	txjjzyzqbx,
	Kurinoku,
	[url=https://github.com/Sslaxx]Stuart Moore ([i]Sslaxx[/i])[/url],
	Crystalwarrior,
	[url=https://github.com/kurinoku]kurinoku[/url],
	[url=https://github.com/Kermer]Sebastian Holc ([i]Kermer[/i])[/url],
	[url=https://github.com/Plopsiskopsis]Plopsiskopsis[/url],
	[url=https://github.com/MatiasVME]Matías Muñoz Espinoza ([i]MatiasVME[/i])[/url],
	Michael Alexsander Silva Dias
"
text = "
Rakugo is made by:
	Jeremi Biernacki (Jeremi360),
	Vaasref
	Zon Petilla (Title Pending),
	Ivan Borgia Dardi(ivandardi/MelodicStream),
	Deep Gaurav

Special Thanks for:
	Nefaras,
	txjjzyzqbx,
	Kurinoku,
	Stuart Moore (Sslaxx),
	Crystalwarrior,
	kurinoku,
	Sebastian Holc (Kermer),
	Plopsiskopsis,
	Matías Muñoz Espinoza (MatiasVME),
	Michael Alexsander Silva Dias
"
selection_enabled = true
[connection signal="pressed" from="VBoxContainer/HBoxContainer/Box/HBoxContainer/WebSiteButton" to="." method="_on_WebSiteButton_pressed"]
[connection signal="pressed" from="VBoxContainer/HBoxContainer/Box/HBoxContainer2/BugButton" to="." method="_on_BugButton_pressed"]
