[gd_scene load_steps=3 format=2]

[ext_resource path="res://gui/QuickMenu/QuickMenu.gd" type="Script" id=1]
[ext_resource path="res://gui/QuickMenu/QuickMenuButton.tscn" type="PackedScene" id=4]

[node name="QuickMenu" type="MarginContainer"]
anchor_top = 1.0
anchor_right = 1.0
anchor_bottom = 1.0
grow_vertical = 0
mouse_filter = 2
custom_constants/margin_right = 200
custom_constants/margin_left = 200
script = ExtResource( 1 )
__meta__ = {
"_edit_use_anchors_": false
}

[node name="ButtonList" type="HBoxContainer" parent="."]
margin_left = 200.0
margin_right = 1080.0
margin_bottom = 40.0
grow_horizontal = 2
rect_min_size = Vector2( 0, 40 )
mouse_filter = 2
size_flags_horizontal = 3
size_flags_vertical = 3
alignment = 1
__meta__ = {
"_edit_group_": true,
"_edit_use_anchors_": false
}

[node name="Hide" parent="ButtonList" instance=ExtResource( 4 )]
visible = false
margin_right = 122.0
margin_bottom = 40.0
size_flags_horizontal = 3
size_flags_vertical = 3
toggle_mode = true
text = "Hide"
quick_action = "hide"

[node name="History" parent="ButtonList" instance=ExtResource( 4 )]
margin_right = 143.0
margin_bottom = 40.0
size_flags_horizontal = 3
size_flags_vertical = 3
text = "History"
quick_action = "history"

[node name="Back" parent="ButtonList" instance=ExtResource( 4 )]
visible = false
margin_left = 256.0
margin_right = 509.0
margin_bottom = 144.0
size_flags_horizontal = 3
size_flags_vertical = 3
text = "Back"
quick_action = "back"

[node name="Save" parent="ButtonList" instance=ExtResource( 4 )]
margin_left = 147.0
margin_right = 290.0
margin_bottom = 40.0
size_flags_horizontal = 3
size_flags_vertical = 3
text = "Save"
quick_action = "save"

[node name="Load" parent="ButtonList" instance=ExtResource( 4 )]
margin_left = 294.0
margin_right = 437.0
margin_bottom = 40.0
size_flags_horizontal = 3
size_flags_vertical = 3
text = "Load"
quick_action = "load"

[node name="Skip" parent="ButtonList" instance=ExtResource( 4 )]
margin_left = 441.0
margin_right = 585.0
margin_bottom = 40.0
size_flags_horizontal = 3
size_flags_vertical = 3
toggle_mode = true
text = "Skip"
quick_action = "skip"

[node name="QSave" parent="ButtonList" instance=ExtResource( 4 )]
visible = false
margin_left = 505.0
margin_right = 627.0
margin_bottom = 40.0
size_flags_horizontal = 3
size_flags_vertical = 3
text = "Q. Save"
quick_action = "quicksave"

[node name="QLoad" parent="ButtonList" instance=ExtResource( 4 )]
visible = false
margin_left = 933.0
margin_right = 1046.0
margin_bottom = 144.0
size_flags_horizontal = 3
size_flags_vertical = 3
text = "Q. Load"
quick_action = "quickload"

[node name="Preferences" parent="ButtonList" instance=ExtResource( 4 )]
margin_left = 589.0
margin_right = 732.0
margin_bottom = 40.0
size_flags_horizontal = 3
size_flags_vertical = 3
text = "Pref."
quick_action = "preferences"

[node name="Quit" parent="ButtonList" instance=ExtResource( 4 )]
margin_left = 736.0
margin_right = 880.0
margin_bottom = 40.0
size_flags_horizontal = 3
size_flags_vertical = 3
text = "Quit"
quick_action = "quit"
[connection signal="mouse_entered" from="ButtonList/History" to="." method="_on_History_mouse_entered"]
[connection signal="mouse_entered" from="ButtonList/Save" to="." method="_on_Save_mouse_entered"]
[connection signal="mouse_entered" from="ButtonList/Load" to="." method="_on_Load_mouse_entered"]
[connection signal="mouse_entered" from="ButtonList/Skip" to="." method="_on_Skip_mouse_entered"]
[connection signal="mouse_entered" from="ButtonList/Preferences" to="." method="_on_Preferences_mouse_entered"]
[connection signal="mouse_entered" from="ButtonList/Quit" to="." method="_on_Quit_mouse_entered"]
