[gd_scene load_steps=3 format=2]

[ext_resource path="res://game/FinalDialogue/FinalDialogue.gd" type="Script" id=1]
[ext_resource path="res://game/FinalDialogue/FinalDialogueAudio.gd" type="Script" id=2]

[node name="FinalDialogue" type="Node2D"]

[node name="Dialogue" type="Node" parent="."]
script = ExtResource( 1 )
default_starting_event = "first_dialogue"
auto_start = true

[node name="AudioPlayer" type="AudioStreamPlayer" parent="."]
script = ExtResource( 2 )
