[gd_scene load_steps=10 format=2]

[ext_resource path="res://gui/Screens/MenuBar/MenuBar.gd" type="Script" id=1]
[ext_resource path="res://themes/Default/default.tres" type="Theme" id=2]
[ext_resource path="res://fonts/DejaVu/DejaVuSans.ttf" type="DynamicFontData" id=3]
[ext_resource path="res://gui/Screens/MenuBar/SubMenu.gd" type="Script" id=4]
[ext_resource path="res://gui/Screens/MenuBar/MainMenu.gd" type="Script" id=5]
[ext_resource path="res://gui/Screens/MenuBar/NavMenuButton.tscn" type="PackedScene" id=6]
[ext_resource path="res://gui/Screens/MenuBar/menu_buttons.tres" type="ButtonGroup" id=7]

[sub_resource type="DynamicFont" id=1]
size = 44
font_data = ExtResource( 3 )

[sub_resource type="StyleBoxFlat" id=2]
content_margin_left = 40.0
content_margin_right = 10.0
draw_center = false
border_width_right = 4
border_color = Color( 0.756863, 0.878431, 1, 1 )

[node name="MenuBar" type="Panel"]
anchor_right = 1.0
anchor_bottom = 1.0
theme = ExtResource( 2 )
script = ExtResource( 1 )
__meta__ = {
"_edit_use_anchors_": false
}

[node name="SubMenu" type="Control" parent="."]
anchor_right = 1.0
anchor_bottom = 1.0
script = ExtResource( 4 )
__meta__ = {
"_edit_group_": true,
"_edit_lock_": true,
"_edit_use_anchors_": false
}

[node name="CurrentSubMenu" type="Label" parent="SubMenu"]
anchor_right = 1.0
anchor_bottom = 0.25
margin_left = 50.0
margin_top = 50.0
custom_fonts/font = SubResource( 1 )
custom_colors/font_color = Color( 0.756863, 0.878431, 1, 1 )
text = "Preferences"
__meta__ = {
"_edit_use_anchors_": false
}

[node name="Panel" type="Panel" parent="SubMenu"]
anchor_top = 0.2
anchor_right = 1.0
anchor_bottom = 0.95
custom_styles/panel = SubResource( 2 )
__meta__ = {
"_edit_use_anchors_": false
}

[node name="MainMenu" type="Control" parent="."]
visible = false
anchor_right = 1.0
anchor_bottom = 1.0
script = ExtResource( 5 )
__meta__ = {
"_edit_group_": true,
"_edit_lock_": true,
"_edit_use_anchors_": false
}

[node name="Panel" type="Panel" parent="MainMenu"]
anchor_right = 1.0
anchor_bottom = 1.0
custom_styles/panel = SubResource( 2 )
__meta__ = {
"_edit_use_anchors_": false
}

[node name="NavList" type="VBoxContainer" parent="."]
anchor_right = 1.0
anchor_bottom = 1.0
margin_left = 40.0
custom_constants/separation = 12
alignment = 1
__meta__ = {
"_edit_lock_": true,
"_edit_use_anchors_": false
}

[node name="Start" parent="NavList" groups=[
"nav_button",
"nav_button_main_menu",
] instance=ExtResource( 6 )]
margin_top = 161.0
margin_right = 1240.0
margin_bottom = 190.0
text = "Start"
nav_action = "start"

[node name="Continue" parent="NavList" groups=[
"nav_button",
"nav_button_continue",
"nav_button_main_menu",
] instance=ExtResource( 6 )]
margin_top = 202.0
margin_right = 1240.0
margin_bottom = 231.0
disabled = true
text = "Continue"
nav_action = "continue"

[node name="History" parent="NavList" groups=[
"nav_button",
"nav_button_game",
] instance=ExtResource( 6 )]
margin_top = 243.0
margin_right = 1240.0
margin_bottom = 272.0
toggle_mode = true
group = ExtResource( 7 )
text = "History"
nav_action = "history"

[node name="Save" parent="NavList" groups=[
"nav_button",
"nav_button_game",
] instance=ExtResource( 6 )]
margin_top = 284.0
margin_right = 1240.0
margin_bottom = 313.0
toggle_mode = true
group = ExtResource( 7 )
text = "Save"
nav_action = "save"

[node name="Load" parent="NavList" groups=[
"nav_button",
] instance=ExtResource( 6 )]
margin_top = 325.0
margin_right = 1240.0
margin_bottom = 354.0
toggle_mode = true
group = ExtResource( 7 )
text = "Load"
nav_action = "load"

[node name="Preferences" parent="NavList" groups=[
"nav_button",
] instance=ExtResource( 6 )]
margin_top = 366.0
margin_right = 1240.0
margin_bottom = 395.0
toggle_mode = true
group = ExtResource( 7 )
text = "Preferences"
nav_action = "preferences"

[node name="MainMenu" parent="NavList" groups=[
"nav_button",
"nav_button_game",
] instance=ExtResource( 6 )]
margin_top = 407.0
margin_right = 1240.0
margin_bottom = 436.0
text = "Main Menu"
nav_action = "main_menu"

[node name="About" parent="NavList" groups=[
"nav_button",
] instance=ExtResource( 6 )]
margin_top = 448.0
margin_right = 1240.0
margin_bottom = 477.0
toggle_mode = true
group = ExtResource( 7 )
text = "About"
nav_action = "about"

[node name="Help" parent="NavList" groups=[
"nav_button",
] instance=ExtResource( 6 )]
margin_top = 489.0
margin_right = 1240.0
margin_bottom = 518.0
toggle_mode = true
group = ExtResource( 7 )
text = "Help"
nav_action = "help"

[node name="Quit" parent="NavList" groups=[
"nav_button",
] instance=ExtResource( 6 )]
margin_top = 530.0
margin_right = 1240.0
margin_bottom = 559.0
text = "Quit"
nav_action = "quit"

[node name="ReturnButton" parent="." groups=[
"nav_button",
] instance=ExtResource( 6 )]
anchor_top = 0.85
anchor_bottom = 0.85
margin_left = 40.0
margin_right = 133.0
margin_bottom = 35.0
text = "Return"
nav_action = "return"
[connection signal="show_menu" from="." to="SubMenu" method="_on_show_menu"]
[connection signal="show_menu" from="." to="MainMenu" method="_on_show_menu"]
[connection signal="mouse_entered" from="NavList/Start" to="." method="_on_Start_mouse_entered"]
[connection signal="mouse_entered" from="NavList/Continue" to="." method="_on_Continue_mouse_entered"]
[connection signal="pressed" from="NavList/Continue" to="." method="_on_Continue_pressed"]
[connection signal="mouse_entered" from="NavList/History" to="." method="_on_History_mouse_entered"]
[connection signal="mouse_entered" from="NavList/Save" to="." method="_on_Save_mouse_entered"]
[connection signal="mouse_entered" from="NavList/Load" to="." method="_on_Load_mouse_entered"]
[connection signal="mouse_entered" from="NavList/Preferences" to="." method="_on_Preferences_mouse_entered"]
[connection signal="mouse_entered" from="NavList/MainMenu" to="." method="_on_MainMenu_mouse_entered"]
[connection signal="mouse_entered" from="NavList/About" to="." method="_on_About_mouse_entered"]
[connection signal="mouse_entered" from="NavList/Help" to="." method="_on_Help_mouse_entered"]
[connection signal="mouse_entered" from="NavList/Quit" to="." method="_on_Quit_mouse_entered"]
[connection signal="mouse_entered" from="ReturnButton" to="." method="_on_ReturnButton_mouse_entered"]
